{
    "slides": {
        "<%= slideId %>": {
            "name": "<%= slideId %>"
        }
    },
    "structures": {
        "default": {
            "name": "Slide",
            "type": "slideshow",
            "content": [
                "<%= slideId %>"
            ]
        }
    },
    "storyboard": ["default"]
}

